(<1: Tool Bohrer 1>)
M9
T02  (GUID:9D937357-D949-4907-ABD0-30A8D8A95CCD)
S2500 F500 M3
G49
(<2: Drilling -5.5>)
F500
G0 X25.438 Y104.883
G0 Z5
G0 Z1
G1 Z-1
G0 Z0
G1 Z-2
G0 Z-1
G1 Z-3
G0 Z-2
G1 Z-4
G0 Z-3
G1 Z-5
G0 Z-4
G1 Z-5.5
G0 Z5
(<3: Drilling -5.5>)
F500
G0 X55.503 Y104.883
G0 Z5
G0 Z1
G1 Z-1
G0 Z0
G1 Z-2
G0 Z-1
G1 Z-3
G0 Z-2
G1 Z-4
G0 Z-3
G1 Z-5
G0 Z-4
G1 Z-5.5
G0 Z5
(<4: Drilling -5.5>)
F500
G0 X17.536 Y76.599
G0 Z5
G0 Z1
G1 Z-1
G0 Z0
G1 Z-2
G0 Z-1
G1 Z-3
G0 Z-2
G1 Z-4
G0 Z-3
G1 Z-5
G0 Z-4
G1 Z-5.5
G0 Z5
(<5: Drilling -5.5>)
F500
G0 X17.512 Y67.099
G0 Z5
G0 Z1
G1 Z-1
G0 Z0
G1 Z-2
G0 Z-1
G1 Z-3
G0 Z-2
G1 Z-4
G0 Z-3
G1 Z-5
G0 Z-4
G1 Z-5.5
G0 Z5
(<6: Drilling -5.5>)
F500
G0 X19.782 Y56.317
G0 Z5
G0 Z1
G1 Z-1
G0 Z0
G1 Z-2
G0 Z-1
G1 Z-3
G0 Z-2
G1 Z-4
G0 Z-3
G1 Z-5
G0 Z-4
G1 Z-5.5
G0 Z5
(<7: Drilling -5.5>)
F500
G0 X17.474 Y44.978
G0 Z5
G0 Z1
G1 Z-1
G0 Z0
G1 Z-2
G0 Z-1
G1 Z-3
G0 Z-2
G1 Z-4
G0 Z-3
G1 Z-5
G0 Z-4
G1 Z-5.5
G0 Z5
(<8: Drilling -5.5>)
F500
G0 X17.498 Y35.478
G0 Z5
G0 Z1
G1 Z-1
G0 Z0
G1 Z-2
G0 Z-1
G1 Z-3
G0 Z-2
G1 Z-4
G0 Z-3
G1 Z-5
G0 Z-4
G1 Z-5.5
G0 Z5
(<9: Drilling -5.5>)
F500
G0 X25.438 Y8.173
G0 Z5
G0 Z1
G1 Z-1
G0 Z0
G1 Z-2
G0 Z-1
G1 Z-3
G0 Z-2
G1 Z-4
G0 Z-3
G1 Z-5
G0 Z-4
G1 Z-5.5
G0 Z5
(<10: Drilling -5.5>)
F500
G0 X55.503 Y8.173
G0 Z5
G0 Z1
G1 Z-1
G0 Z0
G1 Z-2
G0 Z-1
G1 Z-3
G0 Z-2
G1 Z-4
G0 Z-3
G1 Z-5
G0 Z-4
G1 Z-5.5
G0 Z5
(<11: Drilling -5.5>)
F500
G0 X78.793 Y93.293
G0 Z5
G0 Z1
G1 Z-1
G0 Z0
G1 Z-2
G0 Z-1
G1 Z-3
G0 Z-2
G1 Z-4
G0 Z-3
G1 Z-5
G0 Z-4
G1 Z-5.5
G0 Z5
(<12: Drilling -5.5>)
F500
G0 X110.335 Y93.293
G0 Z5
G0 Z1
G1 Z-1
G0 Z0
G1 Z-2
G0 Z-1
G1 Z-3
G0 Z-2
G1 Z-4
G0 Z-3
G1 Z-5
G0 Z-4
G1 Z-5.5
G0 Z5
(<13: Drilling -5.5>)
F500
G0 X78.793 Y71.74
G0 Z5
G0 Z1
G1 Z-1
G0 Z0
G1 Z-2
G0 Z-1
G1 Z-3
G0 Z-2
G1 Z-4
G0 Z-3
G1 Z-5
G0 Z-4
G1 Z-5.5
G0 Z5
(<14: Drilling -5.5>)
F500
G0 X110.335 Y71.74
G0 Z5
G0 Z1
G1 Z-1
G0 Z0
G1 Z-2
G0 Z-1
G1 Z-3
G0 Z-2
G1 Z-4
G0 Z-3
G1 Z-5
G0 Z-4
G1 Z-5.5
G0 Z5
(<15: Drilling -5.5>)
F500
G0 X114.617 Y56.317
G0 Z5
G0 Z1
G1 Z-1
G0 Z0
G1 Z-2
G0 Z-1
G1 Z-3
G0 Z-2
G1 Z-4
G0 Z-3
G1 Z-5
G0 Z-4
G1 Z-5.5
G0 Z5
(<16: Drilling -5.5>)
F500
G0 X79.047 Y40.968
G0 Z5
G0 Z1
G1 Z-1
G0 Z0
G1 Z-2
G0 Z-1
G1 Z-3
G0 Z-2
G1 Z-4
G0 Z-3
G1 Z-5
G0 Z-4
G1 Z-5.5
G0 Z5
(<17: Drilling -5.5>)
F500
G0 X110.59 Y40.968
G0 Z5
G0 Z1
G1 Z-1
G0 Z0
G1 Z-2
G0 Z-1
G1 Z-3
G0 Z-2
G1 Z-4
G0 Z-3
G1 Z-5
G0 Z-4
G1 Z-5.5
G0 Z5
(<18: Drilling -5.5>)
F500
G0 X79.047 Y19.415
G0 Z5
G0 Z1
G1 Z-1
G0 Z0
G1 Z-2
G0 Z-1
G1 Z-3
G0 Z-2
G1 Z-4
G0 Z-3
G1 Z-5
G0 Z-4
G1 Z-5.5
G0 Z5
(<19: Drilling -5.5>)
F500
G0 X110.59 Y19.415
G0 Z5
G0 Z1
G1 Z-1
G0 Z0
G1 Z-2
G0 Z-1
G1 Z-3
G0 Z-2
G1 Z-4
G0 Z-3
G1 Z-5
G0 Z-4
G1 Z-5.5
G0 Z5
(<27: Contour pocket -3.5>)
G0 X32.892 Y56.124
G0 Z5
G0 Z0.5
G3 X30.042 Y56.124 R1.425 Z0.108 F500
G3 X32.892 Y56.124 R1.425 Z-0.283
G3 X30.042 Y56.124 R1.425 Z-0.675
G3 X32.892 Y56.124 R1.425 Z-0.875
G1 X31.467 Y56.124 Z-0.875
G3 X31.498 Y56.076 R0.052 F500
G2 X31.518 Y56.067 R7.5
G2 X31.539 Y56.076 R7.5
G3 X31.57 Y56.124 R0.052
G3 X31.539 Y56.171 R0.052
G2 X31.518 Y56.18 R7.5
G2 X31.498 Y56.171 R7.5
G3 X31.467 Y56.124 R0.052
G1 X30.267 Y56.124 F250
G3 X31.022 Y54.974 R1.252 F500
G2 X31.518 Y54.734 R6.3
G2 X32.015 Y54.974 R6.3
G3 X32.77 Y56.124 R1.252
G3 X32.016 Y57.273 R1.252
G2 X31.518 Y57.514 R6.3
G2 X31.021 Y57.273 R6.3
G3 X30.267 Y56.124 R1.252
G1 X29.067 Y56.124 F250
G3 X30.546 Y53.873 R2.452 F500
G2 X31.518 Y53.319 R5.1
G2 X32.49 Y53.873 R5.1
G3 X33.97 Y56.124 R2.452
G3 X32.492 Y58.374 R2.452
G2 X31.518 Y58.93 R5.1
G2 X30.545 Y58.374 R5.1
G3 X29.067 Y56.124 R2.452
G1 X27.867 Y56.124 F250
G3 X30.071 Y52.771 R3.652 F500
G2 X31.518 Y51.69 R3.9
G2 X32.966 Y52.771 R3.9
G3 X35.17 Y56.124 R3.652
G3 X32.969 Y59.475 R3.652
G2 X31.518 Y60.561 R3.9
G2 X30.068 Y59.475 R3.9
G3 X27.867 Y56.124 R3.652
G1 X26.667 Y56.124 F250
G3 X29.595 Y51.669 R4.852 F500
G2 X31.225 Y49.191 R2.7
G2 X31.224 Y49.13 R2.7
G3 X31.224 Y49.124 R0.295
G3 X31.518 Y48.829 R0.295
G3 X31.813 Y49.124 R0.295
G3 X31.813 Y49.13 R0.295
G2 X31.812 Y49.191 R2.7
G2 X33.442 Y51.669 R2.7
G3 X36.37 Y56.124 R4.852
G3 X33.445 Y60.576 R4.852
G2 X31.818 Y63.054 R2.7
G2 X31.818 Y63.117 R2.7
G3 X31.818 Y63.124 R0.3
G3 X31.518 Y63.424 R0.3
G3 X31.218 Y63.124 R0.3
G3 X31.219 Y63.117 R0.3
G2 X31.219 Y63.054 R2.7
G2 X29.592 Y60.576 R2.7
G3 X26.667 Y56.124 R4.852
G1 X25.467 Y56.124 F250
G3 X29.119 Y50.568 R6.052 F500
G2 X30.025 Y49.191 R1.5
G2 X30.024 Y49.157 R1.5
G3 X30.024 Y49.124 R1.495
G3 X31.518 Y47.629 R1.495
G3 X33.013 Y49.124 R1.495
G3 X33.013 Y49.157 R1.495
G2 X33.012 Y49.191 R1.5
G2 X33.918 Y50.568 R1.5
G3 X37.57 Y56.124 R6.052
G3 X33.922 Y61.678 R6.052
G2 X33.018 Y63.054 R1.5
G2 X33.018 Y63.089 R1.5
G3 X33.018 Y63.124 R1.5
G3 X31.518 Y64.624 R1.5
G3 X30.018 Y63.124 R1.5
G3 X30.019 Y63.089 R1.5
G2 X30.019 Y63.054 R1.5
G2 X29.115 Y61.678 R1.5
G3 X25.467 Y56.124 R6.052
G0 Z5
G0 X32.892 Y56.124
G0 Z-0.375
G3 X30.042 Y56.124 R1.425 Z-0.767 F500
G3 X32.892 Y56.124 R1.425 Z-1.158
G3 X30.042 Y56.124 R1.425 Z-1.55
G3 X32.892 Y56.124 R1.425 Z-1.75
G1 X31.467 Y56.124 Z-1.75
G3 X31.498 Y56.076 R0.052 F500
G2 X31.518 Y56.067 R7.5
G2 X31.539 Y56.076 R7.5
G3 X31.57 Y56.124 R0.052
G3 X31.539 Y56.171 R0.052
G2 X31.518 Y56.18 R7.5
G2 X31.498 Y56.171 R7.5
G3 X31.467 Y56.124 R0.052
G1 X30.267 Y56.124 F250
G3 X31.022 Y54.974 R1.252 F500
G2 X31.518 Y54.734 R6.3
G2 X32.015 Y54.974 R6.3
G3 X32.77 Y56.124 R1.252
G3 X32.016 Y57.273 R1.252
G2 X31.518 Y57.514 R6.3
G2 X31.021 Y57.273 R6.3
G3 X30.267 Y56.124 R1.252
G1 X29.067 Y56.124 F250
G3 X30.546 Y53.873 R2.452 F500
G2 X31.518 Y53.319 R5.1
G2 X32.49 Y53.873 R5.1
G3 X33.97 Y56.124 R2.452
G3 X32.492 Y58.374 R2.452
G2 X31.518 Y58.93 R5.1
G2 X30.545 Y58.374 R5.1
G3 X29.067 Y56.124 R2.452
G1 X27.867 Y56.124 F250
G3 X30.071 Y52.771 R3.652 F500
G2 X31.518 Y51.69 R3.9
G2 X32.966 Y52.771 R3.9
G3 X35.17 Y56.124 R3.652
G3 X32.969 Y59.475 R3.652
G2 X31.518 Y60.561 R3.9
G2 X30.068 Y59.475 R3.9
G3 X27.867 Y56.124 R3.652
G1 X26.667 Y56.124 F250
G3 X29.595 Y51.669 R4.852 F500
G2 X31.225 Y49.191 R2.7
G2 X31.224 Y49.13 R2.7
G3 X31.224 Y49.124 R0.295
G3 X31.518 Y48.829 R0.295
G3 X31.813 Y49.124 R0.295
G3 X31.813 Y49.13 R0.295
G2 X31.812 Y49.191 R2.7
G2 X33.442 Y51.669 R2.7
G3 X36.37 Y56.124 R4.852
G3 X33.445 Y60.576 R4.852
G2 X31.818 Y63.054 R2.7
G2 X31.818 Y63.117 R2.7
G3 X31.818 Y63.124 R0.3
G3 X31.518 Y63.424 R0.3
G3 X31.218 Y63.124 R0.3
G3 X31.219 Y63.117 R0.3
G2 X31.219 Y63.054 R2.7
G2 X29.592 Y60.576 R2.7
G3 X26.667 Y56.124 R4.852
G1 X25.467 Y56.124 F250
G3 X29.119 Y50.568 R6.052 F500
G2 X30.025 Y49.191 R1.5
G2 X30.024 Y49.157 R1.5
G3 X30.024 Y49.124 R1.495
G3 X31.518 Y47.629 R1.495
G3 X33.013 Y49.124 R1.495
G3 X33.013 Y49.157 R1.495
G2 X33.012 Y49.191 R1.5
G2 X33.918 Y50.568 R1.5
G3 X37.57 Y56.124 R6.052
G3 X33.922 Y61.678 R6.052
G2 X33.018 Y63.054 R1.5
G2 X33.018 Y63.089 R1.5
G3 X33.018 Y63.124 R1.5
G3 X31.518 Y64.624 R1.5
G3 X30.018 Y63.124 R1.5
G3 X30.019 Y63.089 R1.5
G2 X30.019 Y63.054 R1.5
G2 X29.115 Y61.678 R1.5
G3 X25.467 Y56.124 R6.052
G0 Z5
G0 X32.892 Y56.124
G0 Z-1.25
G3 X30.042 Y56.124 R1.425 Z-1.642 F500
G3 X32.892 Y56.124 R1.425 Z-2.033
G3 X30.042 Y56.124 R1.425 Z-2.425
G3 X32.892 Y56.124 R1.425 Z-2.625
G1 X31.467 Y56.124 Z-2.625
G3 X31.498 Y56.076 R0.052 F500
G2 X31.518 Y56.067 R7.5
G2 X31.539 Y56.076 R7.5
G3 X31.57 Y56.124 R0.052
G3 X31.539 Y56.171 R0.052
G2 X31.518 Y56.18 R7.5
G2 X31.498 Y56.171 R7.5
G3 X31.467 Y56.124 R0.052
G1 X30.267 Y56.124 F250
G3 X31.022 Y54.974 R1.252 F500
G2 X31.518 Y54.734 R6.3
G2 X32.015 Y54.974 R6.3
G3 X32.77 Y56.124 R1.252
G3 X32.016 Y57.273 R1.252
G2 X31.518 Y57.514 R6.3
G2 X31.021 Y57.273 R6.3
G3 X30.267 Y56.124 R1.252
G1 X29.067 Y56.124 F250
G3 X30.546 Y53.873 R2.452 F500
G2 X31.518 Y53.319 R5.1
G2 X32.49 Y53.873 R5.1
G3 X33.97 Y56.124 R2.452
G3 X32.492 Y58.374 R2.452
G2 X31.518 Y58.93 R5.1
G2 X30.545 Y58.374 R5.1
G3 X29.067 Y56.124 R2.452
G1 X27.867 Y56.124 F250
G3 X30.071 Y52.771 R3.652 F500
G2 X31.518 Y51.69 R3.9
G2 X32.966 Y52.771 R3.9
G3 X35.17 Y56.124 R3.652
G3 X32.969 Y59.475 R3.652
G2 X31.518 Y60.561 R3.9
G2 X30.068 Y59.475 R3.9
G3 X27.867 Y56.124 R3.652
G1 X26.667 Y56.124 F250
G3 X29.595 Y51.669 R4.852 F500
G2 X31.225 Y49.191 R2.7
G2 X31.224 Y49.13 R2.7
G3 X31.224 Y49.124 R0.295
G3 X31.518 Y48.829 R0.295
G3 X31.813 Y49.124 R0.295
G3 X31.813 Y49.13 R0.295
G2 X31.812 Y49.191 R2.7
G2 X33.442 Y51.669 R2.7
G3 X36.37 Y56.124 R4.852
G3 X33.445 Y60.576 R4.852
G2 X31.818 Y63.054 R2.7
G2 X31.818 Y63.117 R2.7
G3 X31.818 Y63.124 R0.3
G3 X31.518 Y63.424 R0.3
G3 X31.218 Y63.124 R0.3
G3 X31.219 Y63.117 R0.3
G2 X31.219 Y63.054 R2.7
G2 X29.592 Y60.576 R2.7
G3 X26.667 Y56.124 R4.852
G1 X25.467 Y56.124 F250
G3 X29.119 Y50.568 R6.052 F500
G2 X30.025 Y49.191 R1.5
G2 X30.024 Y49.157 R1.5
G3 X30.024 Y49.124 R1.495
G3 X31.518 Y47.629 R1.495
G3 X33.013 Y49.124 R1.495
G3 X33.013 Y49.157 R1.495
G2 X33.012 Y49.191 R1.5
G2 X33.918 Y50.568 R1.5
G3 X37.57 Y56.124 R6.052
G3 X33.922 Y61.678 R6.052
G2 X33.018 Y63.054 R1.5
G2 X33.018 Y63.089 R1.5
G3 X33.018 Y63.124 R1.5
G3 X31.518 Y64.624 R1.5
G3 X30.018 Y63.124 R1.5
G3 X30.019 Y63.089 R1.5
G2 X30.019 Y63.054 R1.5
G2 X29.115 Y61.678 R1.5
G3 X25.467 Y56.124 R6.052
G0 Z5
G0 X32.892 Y56.124
G0 Z-2.125
G3 X30.042 Y56.124 R1.425 Z-2.517 F500
G3 X32.892 Y56.124 R1.425 Z-2.908
G3 X30.042 Y56.124 R1.425 Z-3.3
G3 X32.892 Y56.124 R1.425 Z-3.5
G1 X31.467 Y56.124 Z-3.5
G3 X31.498 Y56.076 R0.052 F500
G2 X31.518 Y56.067 R7.5
G2 X31.539 Y56.076 R7.5
G3 X31.57 Y56.124 R0.052
G3 X31.539 Y56.171 R0.052
G2 X31.518 Y56.18 R7.5
G2 X31.498 Y56.171 R7.5
G3 X31.467 Y56.124 R0.052
G1 X30.267 Y56.124 F250
G3 X31.022 Y54.974 R1.252 F500
G2 X31.518 Y54.734 R6.3
G2 X32.015 Y54.974 R6.3
G3 X32.77 Y56.124 R1.252
G3 X32.016 Y57.273 R1.252
G2 X31.518 Y57.514 R6.3
G2 X31.021 Y57.273 R6.3
G3 X30.267 Y56.124 R1.252
G1 X29.067 Y56.124 F250
G3 X30.546 Y53.873 R2.452 F500
G2 X31.518 Y53.319 R5.1
G2 X32.49 Y53.873 R5.1
G3 X33.97 Y56.124 R2.452
G3 X32.492 Y58.374 R2.452
G2 X31.518 Y58.93 R5.1
G2 X30.545 Y58.374 R5.1
G3 X29.067 Y56.124 R2.452
G1 X27.867 Y56.124 F250
G3 X30.071 Y52.771 R3.652 F500
G2 X31.518 Y51.69 R3.9
G2 X32.966 Y52.771 R3.9
G3 X35.17 Y56.124 R3.652
G3 X32.969 Y59.475 R3.652
G2 X31.518 Y60.561 R3.9
G2 X30.068 Y59.475 R3.9
G3 X27.867 Y56.124 R3.652
G1 X26.667 Y56.124 F250
G3 X29.595 Y51.669 R4.852 F500
G2 X31.225 Y49.191 R2.7
G2 X31.224 Y49.13 R2.7
G3 X31.224 Y49.124 R0.295
G3 X31.518 Y48.829 R0.295
G3 X31.813 Y49.124 R0.295
G3 X31.813 Y49.13 R0.295
G2 X31.812 Y49.191 R2.7
G2 X33.442 Y51.669 R2.7
G3 X36.37 Y56.124 R4.852
G3 X33.445 Y60.576 R4.852
G2 X31.818 Y63.054 R2.7
G2 X31.818 Y63.117 R2.7
G3 X31.818 Y63.124 R0.3
G3 X31.518 Y63.424 R0.3
G3 X31.218 Y63.124 R0.3
G3 X31.219 Y63.117 R0.3
G2 X31.219 Y63.054 R2.7
G2 X29.592 Y60.576 R2.7
G3 X26.667 Y56.124 R4.852
G1 X25.467 Y56.124 F250
G3 X29.119 Y50.568 R6.052 F500
G2 X30.025 Y49.191 R1.5
G2 X30.024 Y49.157 R1.5
G3 X30.024 Y49.124 R1.495
G3 X31.518 Y47.629 R1.495
G3 X33.013 Y49.124 R1.495
G3 X33.013 Y49.157 R1.495
G2 X33.012 Y49.191 R1.5
G2 X33.918 Y50.568 R1.5
G3 X37.57 Y56.124 R6.052
G3 X33.922 Y61.678 R6.052
G2 X33.018 Y63.054 R1.5
G2 X33.018 Y63.089 R1.5
G3 X33.018 Y63.124 R1.5
G3 X31.518 Y64.624 R1.5
G3 X30.018 Y63.124 R1.5
G3 X30.019 Y63.089 R1.5
G2 X30.019 Y63.054 R1.5
G2 X29.115 Y61.678 R1.5
G3 X25.467 Y56.124 R6.052
G0 Z5
(<28: Circular Pocket -5.5>)
G0 X19.578 Y90.211
G0 Z5
G0 Z0.5
G1 Z0 F500
G3 X19.986 Y92.677 R1.25 Z-0.344
G3 X19.578 Y90.211 R1.25 Z-0.687
G3 X19.986 Y92.677 R1.25 Z-1.031
G3 X19.578 Y90.211 R1.25 Z-1.1
G3 X19.986 Y92.677 R1.25 F500
G3 X19.578 Y90.211 R1.25
G1 X19.782 Y91.444
G0 Z5
G0 X19.578 Y90.211
G0 Z-0.6
G1 Z-1.1 F500
G3 X19.986 Y92.677 R1.25 Z-1.444
G3 X19.578 Y90.211 R1.25 Z-1.787
G3 X19.986 Y92.677 R1.25 Z-2.131
G3 X19.578 Y90.211 R1.25 Z-2.2
G3 X19.986 Y92.677 R1.25 F500
G3 X19.578 Y90.211 R1.25
G1 X19.782 Y91.444
G0 Z5
G0 X19.578 Y90.211
G0 Z-1.7
G1 Z-2.2 F500
G3 X19.986 Y92.677 R1.25 Z-2.544
G3 X19.578 Y90.211 R1.25 Z-2.887
G3 X19.986 Y92.677 R1.25 Z-3.231
G3 X19.578 Y90.211 R1.25 Z-3.3
G3 X19.986 Y92.677 R1.25 F500
G3 X19.578 Y90.211 R1.25
G1 X19.782 Y91.444
G0 Z5
G0 X19.578 Y90.211
G0 Z-2.8
G1 Z-3.3 F500
G3 X19.986 Y92.677 R1.25 Z-3.644
G3 X19.578 Y90.211 R1.25 Z-3.987
G3 X19.986 Y92.677 R1.25 Z-4.331
G3 X19.578 Y90.211 R1.25 Z-4.4
G3 X19.986 Y92.677 R1.25 F500
G3 X19.578 Y90.211 R1.25
G1 X19.782 Y91.444
G0 Z5
G0 X19.578 Y90.211
G0 Z-3.9
G1 Z-4.4 F500
G3 X19.986 Y92.677 R1.25 Z-4.744
G3 X19.578 Y90.211 R1.25 Z-5.087
G3 X19.986 Y92.677 R1.25 Z-5.431
G3 X19.578 Y90.211 R1.25 Z-5.5
G3 X19.986 Y92.677 R1.25 F500
G3 X19.578 Y90.211 R1.25
G1 X19.782 Y91.444
G0 Z5
(<29: Circular Pocket -5.5>)
G0 X19.578 Y20.04
G0 Z5
G0 Z0.5
G1 Z0 F500
G3 X19.986 Y22.506 R1.25 Z-0.344
G3 X19.578 Y20.04 R1.25 Z-0.687
G3 X19.986 Y22.506 R1.25 Z-1.031
G3 X19.578 Y20.04 R1.25 Z-1.1
G3 X19.986 Y22.506 R1.25 F500
G3 X19.578 Y20.04 R1.25
G1 X19.782 Y21.273
G0 Z5
G0 X19.578 Y20.04
G0 Z-0.6
G1 Z-1.1 F500
G3 X19.986 Y22.506 R1.25 Z-1.444
G3 X19.578 Y20.04 R1.25 Z-1.787
G3 X19.986 Y22.506 R1.25 Z-2.131
G3 X19.578 Y20.04 R1.25 Z-2.2
G3 X19.986 Y22.506 R1.25 F500
G3 X19.578 Y20.04 R1.25
G1 X19.782 Y21.273
G0 Z5
G0 X19.578 Y20.04
G0 Z-1.7
G1 Z-2.2 F500
G3 X19.986 Y22.506 R1.25 Z-2.544
G3 X19.578 Y20.04 R1.25 Z-2.887
G3 X19.986 Y22.506 R1.25 Z-3.231
G3 X19.578 Y20.04 R1.25 Z-3.3
G3 X19.986 Y22.506 R1.25 F500
G3 X19.578 Y20.04 R1.25
G1 X19.782 Y21.273
G0 Z5
G0 X19.578 Y20.04
G0 Z-2.8
G1 Z-3.3 F500
G3 X19.986 Y22.506 R1.25 Z-3.644
G3 X19.578 Y20.04 R1.25 Z-3.987
G3 X19.986 Y22.506 R1.25 Z-4.331
G3 X19.578 Y20.04 R1.25 Z-4.4
G3 X19.986 Y22.506 R1.25 F500
G3 X19.578 Y20.04 R1.25
G1 X19.782 Y21.273
G0 Z5
G0 X19.578 Y20.04
G0 Z-3.9
G1 Z-4.4 F500
G3 X19.986 Y22.506 R1.25 Z-4.744
G3 X19.578 Y20.04 R1.25 Z-5.087
G3 X19.986 Y22.506 R1.25 Z-5.431
G3 X19.578 Y20.04 R1.25 Z-5.5
G3 X19.986 Y22.506 R1.25 F500
G3 X19.578 Y20.04 R1.25
G1 X19.782 Y21.273
G0 Z5
(<30: Kontur -1.1>)
G0 X15.629 Y111.456
G0 Z5
G0 Z0.5
G1 Z-1.1 F500
G2 X18.778 Y112.821 R10.823 F500
G2 X20.883 Y113.083 R8.466
G1 X65.338 Y113.083
G2 X66.838 Y111.583 R1.5
G1 X66.838 Y100.419
G1 X121.284 Y100.419
G2 X122.784 Y98.919 R1.5
G1 X122.784 Y13.785
G2 X121.284 Y12.285 R1.5
G1 X66.838 Y12.285
G1 X66.838 Y1.473
G2 X65.338 Y-0.027 R1.5
G1 X20.889 Y-0.027
G2 X19.704 Y0.027 R10.775
G2 X16.906 Y0.718 R10.202
G2 X14.529 Y2.037 R11.114
G2 X11.666 Y4.724 R15.807
G2 X9.029 Y8.553 R26.044
G2 X6.433 Y13.935 R46.503
G2 X4.455 Y19.368 R80.445
G2 X4.446 Y19.395 R1.5
G2 X3.922 Y21.237 R56.484
G2 X2.752 Y26.366 R73.671
G2 X1.118 Y37.761 R124.246
G2 X0.277 Y53.159 R186.07
G2 X0.518 Y65.879 R198.378
G2 X1.762 Y79.466 R169.502
G2 X3.555 Y89.436 R109.157
G2 X4.436 Y92.884 R68.699
G2 X6.937 Y100.029 R52.944
G2 X10.048 Y105.752 R36.331
G2 X12.843 Y109.195 R23.623
G2 X15.629 Y111.456 R15.849
G0 Z5
(<31: Kontur -2.2>)
G0 X15.629 Y111.456
G0 Z5
G0 Z-0.6
G1 Z-2.2 F500
G2 X18.778 Y112.821 R10.823 F500
G2 X20.883 Y113.083 R8.466
G1 X65.338 Y113.083
G2 X66.838 Y111.583 R1.5
G1 X66.838 Y100.419
G1 X121.284 Y100.419
G2 X122.784 Y98.919 R1.5
G1 X122.784 Y13.785
G2 X121.284 Y12.285 R1.5
G1 X66.838 Y12.285
G1 X66.838 Y1.473
G2 X65.338 Y-0.027 R1.5
G1 X20.889 Y-0.027
G2 X19.704 Y0.027 R10.775
G2 X16.906 Y0.718 R10.202
G2 X14.529 Y2.037 R11.114
G2 X11.666 Y4.724 R15.807
G2 X9.029 Y8.553 R26.044
G2 X6.433 Y13.935 R46.503
G2 X4.455 Y19.368 R80.445
G2 X4.446 Y19.395 R1.5
G2 X3.922 Y21.237 R56.484
G2 X2.752 Y26.366 R73.671
G2 X1.118 Y37.761 R124.246
G2 X0.277 Y53.159 R186.07
G2 X0.518 Y65.879 R198.378
G2 X1.762 Y79.466 R169.502
G2 X3.555 Y89.436 R109.157
G2 X4.436 Y92.884 R68.699
G2 X6.937 Y100.029 R52.944
G2 X10.048 Y105.752 R36.331
G2 X12.843 Y109.195 R23.623
G2 X15.629 Y111.456 R15.849
G0 Z5
(<32: Kontur -3.3>)
G0 X15.629 Y111.456
G0 Z5
G0 Z-1.7
G1 Z-3.3 F500
G2 X18.778 Y112.821 R10.823 F500
G2 X20.883 Y113.083 R8.466
G1 X65.338 Y113.083
G2 X66.838 Y111.583 R1.5
G1 X66.838 Y100.419
G1 X121.284 Y100.419
G2 X122.784 Y98.919 R1.5
G1 X122.784 Y13.785
G2 X121.284 Y12.285 R1.5
G1 X66.838 Y12.285
G1 X66.838 Y1.473
G2 X65.338 Y-0.027 R1.5
G1 X20.889 Y-0.027
G2 X19.704 Y0.027 R10.775
G2 X16.906 Y0.718 R10.202
G2 X14.529 Y2.037 R11.114
G2 X11.666 Y4.724 R15.807
G2 X9.029 Y8.553 R26.044
G2 X6.433 Y13.935 R46.503
G2 X4.455 Y19.368 R80.445
G2 X4.446 Y19.395 R1.5
G2 X3.922 Y21.237 R56.484
G2 X2.752 Y26.366 R73.671
G2 X1.118 Y37.761 R124.246
G2 X0.277 Y53.159 R186.07
G2 X0.518 Y65.879 R198.378
G2 X1.762 Y79.466 R169.502
G2 X3.555 Y89.436 R109.157
G2 X4.436 Y92.884 R68.699
G2 X6.937 Y100.029 R52.944
G2 X10.048 Y105.752 R36.331
G2 X12.843 Y109.195 R23.623
G2 X15.629 Y111.456 R15.849
G0 Z5
(<33: Kontur -4.4>)
G0 X15.629 Y111.456
G0 Z5
G0 Z-2.8
G1 Z-4.4 F500
G2 X18.778 Y112.821 R10.823 F500
G2 X20.883 Y113.083 R8.466
G1 X65.338 Y113.083
G2 X66.838 Y111.583 R1.5
G1 X66.838 Y100.419
G1 X121.284 Y100.419
G2 X122.784 Y98.919 R1.5
G1 X122.784 Y13.785
G2 X121.284 Y12.285 R1.5
G1 X66.838 Y12.285
G1 X66.838 Y1.473
G2 X65.338 Y-0.027 R1.5
G1 X20.889 Y-0.027
G2 X19.704 Y0.027 R10.775
G2 X16.906 Y0.718 R10.202
G2 X14.529 Y2.037 R11.114
G2 X11.666 Y4.724 R15.807
G2 X9.029 Y8.553 R26.044
G2 X6.433 Y13.935 R46.503
G2 X4.455 Y19.368 R80.445
G2 X4.446 Y19.395 R1.5
G2 X3.922 Y21.237 R56.484
G2 X2.752 Y26.366 R73.671
G2 X1.118 Y37.761 R124.246
G2 X0.277 Y53.159 R186.07
G2 X0.518 Y65.879 R198.378
G2 X1.762 Y79.466 R169.502
G2 X3.555 Y89.436 R109.157
G2 X4.436 Y92.884 R68.699
G2 X6.937 Y100.029 R52.944
G2 X10.048 Y105.752 R36.331
G2 X12.843 Y109.195 R23.623
G2 X15.629 Y111.456 R15.849
G0 Z5
(<34: Kontur -5.5>)
G0 X15.629 Y111.456
G0 Z5
G0 Z-3.9
G1 Z-5.5 F500
G2 X18.778 Y112.821 R10.823 F500
G2 X20.883 Y113.083 R8.466
G1 X65.338 Y113.083
G2 X66.838 Y111.583 R1.5
G1 X66.838 Y100.419
G1 X121.284 Y100.419
G2 X122.784 Y98.919 R1.5
G1 X122.784 Y13.785
G2 X121.284 Y12.285 R1.5
G1 X66.838 Y12.285
G1 X66.838 Y1.473
G2 X65.338 Y-0.027 R1.5
G1 X20.889 Y-0.027
G2 X19.704 Y0.027 R10.775
G2 X16.906 Y0.718 R10.202
G2 X14.529 Y2.037 R11.114
G2 X11.666 Y4.724 R15.807
G2 X9.029 Y8.553 R26.044
G2 X6.433 Y13.935 R46.503
G2 X4.455 Y19.368 R80.445
G2 X4.446 Y19.395 R1.5
G2 X3.922 Y21.237 R56.484
G2 X2.752 Y26.366 R73.671
G2 X1.118 Y37.761 R124.246
G2 X0.277 Y53.159 R186.07
G2 X0.518 Y65.879 R198.378
G2 X1.762 Y79.466 R169.502
G2 X3.555 Y89.436 R109.157
G2 X4.436 Y92.884 R68.699
G2 X6.937 Y100.029 R52.944
G2 X10.048 Y105.752 R36.331
G2 X12.843 Y109.195 R23.623
G2 X15.629 Y111.456 R15.849
G0 Z5
